{
    "instances": {
        "c3.large": {
            "memory": 3.75,
            "vcpu": 2,
            "gflops": 22.09,
            "restrictions": {
                "markets": {
                    "on-demand": "allowed",
                    "preemptible": "allowed"
                },
                "limits": {
                    "on-demand": 5,
                    "preemptible": 5
                }
            },
            "provider": "ec2"
        },
        "c3.xlarge": {
            "memory": 7.5,
            "vcpu": 4,
            "gflops": 40.73,
            "restrictions": {
                "markets": {
                    "on-demand": "allowed",
                    "preemptible": "allowed"
                },
                "limits": {
                    "on-demand": 5,
                    "preemptible": 5
                }
            },
            "provider": "ec2"
        },
        "c3.2xlarge": {
            "memory": 16,
            "vcpu": 8,
            "gflops": 40.73,
            "restrictions": {
                "markets": {
                    "on-demand": "allowed",
                    "preemptible": "allowed"
                },
                "limits": {
                    "on-demand": 5,
                    "preemptible": 5
                }
            },
            "provider": "ec2"
        },
        "c4.large": {
            "memory": 3.75,
            "vcpu": 2,
            "gflops": 44.46,
            "restrictions": {
                "markets": {
                    "on-demand": "allowed",
                    "preemptible": "allowed"
                },
                "limits": {
                    "on-demand": 5,
                    "preemptible": 5
                }
            },
            "provider": "ec2"
        },
        "c4.xlarge": {
            "memory": 7.5,
            "vcpu": 4,
            "gflops": 83.33,
            "restrictions": {
                "markets": {
                    "on-demand": "allowed",
                    "preemptible": "allowed"
                },
                "limits": {
                    "on-demand": 5,
                    "preemptible": 5
                }
            },
            "provider": "ec2"
        },
        "t2.nano": {
            "memory": 0.5,
            "vcpu": 2,
            "gflops": 0.33,
            "restrictions": {
                "markets": {
                    "on-demand": "yes",
                    "preemptible": "no"
                },
                "limits": {
                    "on-demand": 5,
                    "preemptible": 0
                }
            },
            "provider": "ec2"
        },
        "t2.medium": {
            "memory": 0.5,
            "vcpu": 2,
            "gflops": 0.33,
            "restrictions": {
                "markets": {
                    "on-demand": "yes",
                    "preemptible": "no"
                },
                "limits": {
                    "on-demand": 5,
                    "preemptible": 0
                }
            },
            "provider": "ec2"
        }
    },
    "global_limits": {
        "ec2": {
            "preemptive": 20,
            "on-demand": 20
        },
        "gcloud": {
            "preemptive": 20,
            "on-demand": 20
        }
    }
}
